[api-updater (non-obsolete-error-filter)] 7/4/2021 9:20:49 PM : Starting C:/Program Files/Unity/Hub/Editor/2020.2.2f1/Editor/Data/Tools/ScriptUpdater/APIUpdater.NonObsoleteApiUpdaterDetector.exe
[api-updater (non-obsolete-error-filter)] 
----------------------------------
jit/startup time      : 606.6294ms
moved types parse time: 45ms
candidates parse time : 0ms
C# parse time         : 302ms
candidates check time : 27ms
console write time    : 0ms

[api-updater (non-obsolete-error-filter)] 7/11/2021 11:02:09 PM : Starting C:/Program Files/Unity/Hub/Editor/2020.2.2f1/Editor/Data/Tools/ScriptUpdater/APIUpdater.NonObsoleteApiUpdaterDetector.exe
[api-updater (non-obsolete-error-filter)] 
----------------------------------
jit/startup time      : 213.3455ms
moved types parse time: 40ms
candidates parse time : 0ms
C# parse time         : 251ms
candidates check time : 27ms
console write time    : 1ms

[api-updater (non-obsolete-error-filter)] 7/12/2021 9:05:11 PM : Starting C:/Program Files/Unity/Hub/Editor/2020.2.2f1/Editor/Data/Tools/ScriptUpdater/APIUpdater.NonObsoleteApiUpdaterDetector.exe
[api-updater (non-obsolete-error-filter)] 
----------------------------------
jit/startup time      : 635.55ms
moved types parse time: 45ms
candidates parse time : 0ms
C# parse time         : 301ms
candidates check time : 29ms
console write time    : 0ms

[api-updater (non-obsolete-error-filter)] 8/18/2021 2:40:43 PM : Starting C:/Program Files/Unity/Hub/Editor/2020.2.2f1/Editor/Data/Tools/ScriptUpdater/APIUpdater.NonObsoleteApiUpdaterDetector.exe
[api-updater (non-obsolete-error-filter)] 
----------------------------------
jit/startup time      : 612.5717ms
moved types parse time: 45ms
candidates parse time : 1ms
C# parse time         : 302ms
candidates check time : 41ms
console write time    : 0ms

[api-updater (non-obsolete-error-filter)] 8/18/2021 2:40:51 PM : Starting C:/Program Files/Unity/Hub/Editor/2020.2.2f1/Editor/Data/Tools/ScriptUpdater/APIUpdater.NonObsoleteApiUpdaterDetector.exe
[api-updater (non-obsolete-error-filter)] 
----------------------------------
jit/startup time      : 52.8901ms
moved types parse time: 39ms
candidates parse time : 0ms
C# parse time         : 151ms
candidates check time : 37ms
console write time    : 0ms

[api-updater (non-obsolete-error-filter)] 8/18/2021 2:44:13 PM : Starting C:/Program Files/Unity/Hub/Editor/2020.2.2f1/Editor/Data/Tools/ScriptUpdater/APIUpdater.NonObsoleteApiUpdaterDetector.exe
[api-updater (non-obsolete-error-filter)] 
----------------------------------
jit/startup time      : 55.8814ms
moved types parse time: 41ms
candidates parse time : 0ms
C# parse time         : 158ms
candidates check time : 35ms
console write time    : 0ms

[api-updater (non-obsolete-error-filter)] 8/18/2021 2:45:47 PM : Starting C:/Program Files/Unity/Hub/Editor/2020.2.2f1/Editor/Data/Tools/ScriptUpdater/APIUpdater.NonObsoleteApiUpdaterDetector.exe
[api-updater (non-obsolete-error-filter)] 
----------------------------------
jit/startup time      : 54.8569ms
moved types parse time: 39ms
candidates parse time : 0ms
C# parse time         : 155ms
candidates check time : 36ms
console write time    : 0ms

[api-updater (non-obsolete-error-filter)] 8/18/2021 5:43:29 PM : Starting C:/Program Files/Unity/Hub/Editor/2020.2.2f1/Editor/Data/Tools/ScriptUpdater/APIUpdater.NonObsoleteApiUpdaterDetector.exe
[api-updater (non-obsolete-error-filter)] 
----------------------------------
jit/startup time      : 59.1105ms
moved types parse time: 39ms
candidates parse time : 1ms
C# parse time         : 152ms
candidates check time : 41ms
console write time    : 0ms

[api-updater (non-obsolete-error-filter)] 8/18/2021 5:43:48 PM : Starting C:/Program Files/Unity/Hub/Editor/2020.2.2f1/Editor/Data/Tools/ScriptUpdater/APIUpdater.NonObsoleteApiUpdaterDetector.exe
[api-updater (non-obsolete-error-filter)] 
----------------------------------
jit/startup time      : 53.8578ms
moved types parse time: 39ms
candidates parse time : 0ms
C# parse time         : 150ms
candidates check time : 38ms
console write time    : 0ms

[api-updater (non-obsolete-error-filter)] 8/18/2021 5:43:59 PM : Starting C:/Program Files/Unity/Hub/Editor/2020.2.2f1/Editor/Data/Tools/ScriptUpdater/APIUpdater.NonObsoleteApiUpdaterDetector.exe
[api-updater (non-obsolete-error-filter)] 
----------------------------------
jit/startup time      : 52.4611ms
moved types parse time: 40ms
candidates parse time : 1ms
C# parse time         : 149ms
candidates check time : 38ms
console write time    : 0ms

[api-updater (non-obsolete-error-filter)] 8/18/2021 5:44:12 PM : Starting C:/Program Files/Unity/Hub/Editor/2020.2.2f1/Editor/Data/Tools/ScriptUpdater/APIUpdater.NonObsoleteApiUpdaterDetector.exe
[api-updater (non-obsolete-error-filter)] 
----------------------------------
jit/startup time      : 52.505ms
moved types parse time: 39ms
candidates parse time : 0ms
C# parse time         : 151ms
candidates check time : 35ms
console write time    : 0ms

[api-updater (non-obsolete-error-filter)] 8/18/2021 6:49:21 PM : Starting C:/Program Files/Unity/Hub/Editor/2020.2.2f1/Editor/Data/Tools/ScriptUpdater/APIUpdater.NonObsoleteApiUpdaterDetector.exe
[api-updater (non-obsolete-error-filter)] 
----------------------------------
jit/startup time      : 56.4774ms
moved types parse time: 39ms
candidates parse time : 0ms
C# parse time         : 150ms
candidates check time : 34ms
console write time    : 0ms

[api-updater (non-obsolete-error-filter)] 8/18/2021 6:50:32 PM : Starting C:/Program Files/Unity/Hub/Editor/2020.2.2f1/Editor/Data/Tools/ScriptUpdater/APIUpdater.NonObsoleteApiUpdaterDetector.exe
[api-updater (non-obsolete-error-filter)] 
----------------------------------
jit/startup time      : 53.8898ms
moved types parse time: 39ms
candidates parse time : 0ms
C# parse time         : 149ms
candidates check time : 34ms
console write time    : 0ms

[api-updater (non-obsolete-error-filter)] 8/19/2021 6:34:44 PM : Starting C:/Program Files/Unity/Hub/Editor/2020.2.2f1/Editor/Data/Tools/ScriptUpdater/APIUpdater.NonObsoleteApiUpdaterDetector.exe
[api-updater (non-obsolete-error-filter)] 
----------------------------------
jit/startup time      : 1037.0525ms
moved types parse time: 47ms
candidates parse time : 0ms
C# parse time         : 430ms
candidates check time : 37ms
console write time    : 0ms

[api-updater (non-obsolete-error-filter)] 8/19/2021 8:52:44 PM : Starting C:/Program Files/Unity/Hub/Editor/2020.2.2f1/Editor/Data/Tools/ScriptUpdater/APIUpdater.NonObsoleteApiUpdaterDetector.exe
[api-updater (non-obsolete-error-filter)] 
----------------------------------
jit/startup time      : 63.8292ms
moved types parse time: 39ms
candidates parse time : 1ms
C# parse time         : 151ms
candidates check time : 36ms
console write time    : 0ms

[api-updater (non-obsolete-error-filter)] 8/19/2021 9:55:44 PM : Starting C:/Program Files/Unity/Hub/Editor/2020.2.2f1/Editor/Data/Tools/ScriptUpdater/APIUpdater.NonObsoleteApiUpdaterDetector.exe
[api-updater (non-obsolete-error-filter)] 
----------------------------------
jit/startup time      : 57.8804ms
moved types parse time: 40ms
candidates parse time : 0ms
C# parse time         : 152ms
candidates check time : 34ms
console write time    : 0ms

[api-updater (non-obsolete-error-filter)] 8/21/2021 1:17:06 PM : Starting C:/Program Files/Unity/Hub/Editor/2020.2.2f1/Editor/Data/Tools/ScriptUpdater/APIUpdater.NonObsoleteApiUpdaterDetector.exe
[api-updater (non-obsolete-error-filter)] 
----------------------------------
jit/startup time      : 603.1025ms
moved types parse time: 46ms
candidates parse time : 1ms
C# parse time         : 316ms
candidates check time : 42ms
console write time    : 0ms

[api-updater (non-obsolete-error-filter)] 8/23/2021 2:17:49 AM : Starting C:/Program Files/Unity/Hub/Editor/2020.2.2f1/Editor/Data/Tools/ScriptUpdater/APIUpdater.NonObsoleteApiUpdaterDetector.exe
[api-updater (non-obsolete-error-filter)] 
----------------------------------
jit/startup time      : 607.797ms
moved types parse time: 45ms
candidates parse time : 0ms
C# parse time         : 306ms
candidates check time : 22ms
console write time    : 0ms

